…
# Call both head() and summary() on hflights
#head(hflights)
#summary(hflights)

# Convert the hflights_df data.frame into a hflights tbl
hflights <- tbl_df(hflights)

# Display the hflights tbl
hflights
```

    ## # A tibble: 227,496 x 21
    ##     Year Month DayofMonth DayOfWeek DepTime ArrTime UniqueCarrier FlightNum
    ##  * <int> <int>      <int>     <int>   <int>   <int> <chr>             <int>
    ##  1  2011     1          1         6    1400    1500 AA                  428
    ##  2  2011     1          2         7    1401    1501 AA                  428
    ##  3  2011     1          3         1    1352    1502 AA                  428
    ##  4  2011     1          4         2    1403    1513 AA                  428
    ##  5  2011     1          5         3    1405    1507 AA                  428
    ##  6  2011     1          6         4    1359    1503 AA                  428
    ##  7  2011     1          7         5    1359    1509 AA                  428
    ##  8  2011     1          8         6    1355    1454 AA                  428
    ##  9  2011     1          9         7    1443    1554 AA                  428
    ## 10  2011     1         10         1    1443    1553 AA                  428
    ## # ... with 227,486 more rows, and 13 more variables: TailNum <chr>,
    ## #   ActualElapsedTime <int>, AirTime <int>, ArrDelay <int>,
    ## #   DepDelay <int>, Origin <chr>, Dest <chr>, Distance <int>,
    ## #   TaxiIn <int>, TaxiOut <int>, Cancelled <int>, CancellationCode <chr>,
    ## #   Diverted <int>
…
3 select()
----------

``` r
# hflights is pre-loaded as a tbl, together with the necessary libraries.

# Print out a tbl with the four columns of hflights related to delay
select(hflights, ActualElapsedTime, AirTime, ArrDelay, DepDelay)
```

    ## # A tibble: 227,496 x 4
    ##    ActualElapsedTime AirTime ArrDelay DepDelay
    ##  *             <int>   <int>    <int>    <int>
    ##  1                60      40      -10        0
    ##  2                60      45       -9        1
    ##  3                70      48       -8       -8
    ##  4                70      39        3        3
    ##  5                62      44       -3        5
    ##  6                64      45       -7       -1
    ##  7                70      43       -1       -1
    ##  8                59      40      -16       -5
    ##  9                71      41       44       43
    ## 10                70      45       43       43
    ## # ... with 227,486 more rows

``` r
# Print out the columns Origin up to Cancelled of hflights
select(hflights, Origin:Cancelled)
```

    ## # A tibble: 227,496 x 6
    ##    Origin Dest  Distance TaxiIn TaxiOut Cancelled
    ##  * <chr>  <chr>    <int>  <int>   <int>     <int>
    ##  1 IAH    DFW        224      7      13         0
    ##  2 IAH    DFW        224      6       9         0
    ##  3 IAH    DFW        224      5      17         0
    ##  4 IAH    DFW        224      9      22         0
    ##  5 IAH    DFW        224      9       9         0
    ##  6 IAH    DFW        224      6      13         0
    ##  7 IAH    DFW        224     12      15         0
    ##  8 IAH    DFW        224      7      12         0
    ##  9 IAH    DFW        224      8      22         0
    ## 10 IAH    DFW        224      6      19         0
    ## # ... with 227,486 more rows

``` r
# Find the most concise way to select: columns Year up to and including DayOfWeek, 
# columns ArrDelay up to and including Diverted
select(hflights, Year:DayOfWeek, ArrDelay:Diverted)
```

    ## # A tibble: 227,496 x 14
    ##     Year Month DayofMonth DayOfWeek ArrDelay DepDelay Origin Dest  Distance
    ##  * <int> <int>      <int>     <int>    <int>    <int> <chr>  <chr>    <int>
    ##  1  2011     1          1         6      -10        0 IAH    DFW        224
    ##  2  2011     1          2         7       -9        1 IAH    DFW        224
    ##  3  2011     1          3         1       -8       -8 IAH    DFW        224
    ##  4  2011     1          4         2        3        3 IAH    DFW        224
    ##  5  2011     1          5         3       -3        5 IAH    DFW        224
    ##  6  2011     1          6         4       -7       -1 IAH    DFW        224
    ##  7  2011     1          7         5       -1       -1 IAH    DFW        224
    ##  8  2011     1          8         6      -16       -5 IAH    DFW        224
    ##  9  2011     1          9         7       44       43 IAH    DFW        224
    ## 10  2011     1         10         1       43       43 IAH    DFW        224
    ## # ... with 227,486 more rows, and 5 more variables: TaxiIn <int>,
    ## #   TaxiOut <int>, Cancelled <int>, CancellationCode <chr>, Diverted <int>

``` r
# As usual, hflights is pre-loaded as a tbl, together with the necessary libraries.

# Print out a tbl containing just ArrDelay and DepDelay
select(hflights, ArrDelay, DepDelay)
```

    ## # A tibble: 227,496 x 2
    ##    ArrDelay DepDelay
    ##  *    <int>    <int>
    ##  1      -10        0
    ##  2       -9        1
    ##  3       -8       -8
    ##  4        3        3
    ##  5       -3        5
    ##  6       -7       -1
    ##  7       -1       -1
    ##  8      -16       -5
    ##  9       44       43
    ## 10       43       43
    ## # ... with 227,486 more rows

``` r
# Print out a tbl as described in the second instruction, using both helper functions and variable names
select(hflights, UniqueCarrier, ends_with("Num"), contains("Cancel"))
```

    ## # A tibble: 227,496 x 5
    ##    UniqueCarrier FlightNum TailNum Cancelled CancellationCode
    ##  * <chr>             <int> <chr>       <int> <chr>           
    ##  1 AA                  428 N576AA          0 ""              
    ##  2 AA                  428 N557AA          0 ""              
    ##  3 AA                  428 N541AA          0 ""              
    ##  4 AA                  428 N403AA          0 ""              
    ##  5 AA                  428 N492AA          0 ""              
    ##  6 AA                  428 N262AA          0 ""              
    ##  7 AA                  428 N493AA          0 ""              
    ##  8 AA                  428 N477AA          0 ""              
    ##  9 AA                  428 N476AA          0 ""              
    ## 10 AA                  428 N504AA          0 ""              
    ## # ... with 227,486 more rows

``` r
# Print out a tbl as described in the third instruction, using only helper functions.
select(hflights, contains("Time"), contains("Delay"))
```

    ## # A tibble: 227,496 x 6
    ##    DepTime ArrTime ActualElapsedTime AirTime ArrDelay DepDelay
    ##  *   <int>   <int>             <int>   <int>    <int>    <int>
    ##  1    1400    1500                60      40      -10        0
    ##  2    1401    1501                60      45       -9        1
    ##  3    1352    1502                70      48       -8       -8
    ##  4    1403    1513                70      39        3        3
    ##  5    1405    1507                62      44       -3        5
    ##  6    1359    1503                64      45       -7       -1
    ##  7    1359    1509                70      43       -1       -1
    ##  8    1355    1454                59      40      -16       -5
    ##  9    1443    1554                71      41       44       43
    ## 10    1443    1553                70      45       43       43
    ## # ... with 227,486 more rows
…
# Add the new variable ActualGroundTime to a copy of hflights and save the result as g1.
g1 <- mutate(hflights, ActualGroundTime = ActualElapsedTime - AirTime)

# Add the new variable GroundTime to g1. Save the result as g2.
g2 <- mutate(g1, GroundTime = TaxiIn + TaxiOut)

# Add the new variable AverageSpeed to g2. Save the result as g3.
g3 <- mutate(g2, AverageSpeed = 60 * Distance/AirTime)

# Print out g3
g3
```

    ## # A tibble: 227,496 x 26
    ##     Year Month DayofMonth DayOfWeek DepTime ArrTime UniqueCarrier FlightNum
    ##    <int> <int>      <int>     <int>   <int>   <int> <chr>             <int>
    ##  1  2011     1          1         6    1400    1500 AA                  428
    ##  2  2011     1          2         7    1401    1501 AA                  428
    ##  3  2011     1          3         1    1352    1502 AA                  428
    ##  4  2011     1          4         2    1403    1513 AA                  428
    ##  5  2011     1          5         3    1405    1507 AA                  428
    ##  6  2011     1          6         4    1359    1503 AA                  428
    ##  7  2011     1          7         5    1359    1509 AA                  428
    ##  8  2011     1          8         6    1355    1454 AA                  428
    ##  9  2011     1          9         7    1443    1554 AA                  428
    ## 10  2011     1         10         1    1443    1553 AA                  428
    ## # ... with 227,486 more rows, and 18 more variables: TailNum <chr>,
    ## #   ActualElapsedTime <int>, AirTime <int>, ArrDelay <int>,
    ## #   DepDelay <int>, Origin <chr>, Dest <chr>, Distance <int>,
    ## #   TaxiIn <int>, TaxiOut <int>, Cancelled <int>, CancellationCode <chr>,
    ## #   Diverted <int>, Carrier <chr>, Code <chr>, ActualGroundTime <int>,
    ## #   GroundTime <int>, AverageSpeed <dbl>
…
### 5 filter()

``` r
# hflights is at your disposal as a tbl, with clean carrier names

# All flights that traveled 3000 miles or more
filter(hflights, Distance >= 3000)
```

    ## # A tibble: 527 x 23
    ##     Year Month DayofMonth DayOfWeek DepTime ArrTime UniqueCarrier FlightNum
    ##    <int> <int>      <int>     <int>   <int>   <int> <chr>             <int>
    ##  1  2011     1         31         1     924    1413 CO                    1
    ##  2  2011     1         30         7     925    1410 CO                    1
    ##  3  2011     1         29         6    1045    1445 CO                    1
    ##  4  2011     1         28         5    1516    1916 CO                    1
    ##  5  2011     1         27         4     950    1344 CO                    1
    ##  6  2011     1         26         3     944    1350 CO                    1
    ##  7  2011     1         25         2     924    1337 CO                    1
    ##  8  2011     1         24         1    1144    1605 CO                    1
    ##  9  2011     1         23         7     926    1335 CO                    1
    ## 10  2011     1         22         6     942    1340 CO                    1
    ## # ... with 517 more rows, and 15 more variables: TailNum <chr>,
    ## #   ActualElapsedTime <int>, AirTime <int>, ArrDelay <int>,
    ## #   DepDelay <int>, Origin <chr>, Dest <chr>, Distance <int>,
    ## #   TaxiIn <int>, TaxiOut <int>, Cancelled <int>, CancellationCode <chr>,
    ## #   Diverted <int>, Carrier <chr>, Code <chr>
…
    ## # A tibble: 0 x 23
    ## # ... with 23 variables: Year <int>, Month <int>, DayofMonth <int>,
    ## #   DayOfWeek <int>, DepTime <int>, ArrTime <int>, UniqueCarrier <chr>,
    ## #   FlightNum <int>, TailNum <chr>, ActualElapsedTime <int>,
    ## #   AirTime <int>, ArrDelay <int>, DepDelay <int>, Origin <chr>,
    ## #   Dest <chr>, Distance <int>, TaxiIn <int>, TaxiOut <int>,
    ## #   Cancelled <int>, CancellationCode <chr>, Diverted <int>,
    ## #   Carrier <chr>, Code <chr>

``` r
# All flights where taxiing took longer than flying
filter(hflights, (TaxiOut+TaxiIn)>AirTime)
```

    ## # A tibble: 1,389 x 23
    ##     Year Month DayofMonth DayOfWeek DepTime ArrTime UniqueCarrier FlightNum
    ##    <int> <int>      <int>     <int>   <int>   <int> <chr>             <int>
    ##  1  2011     1         24         1     731     904 AA                  460
    ##  2  2011     1         30         7    1959    2132 AA                  533
    ##  3  2011     1         24         1    1621    1749 AA                 1121
    ##  4  2011     1         10         1     941    1113 AA                 1436
    ##  5  2011     1         31         1    1301    1356 CO                  241
    ##  6  2011     1         31         1    2113    2215 CO                 1533
    ##  7  2011     1         31         1    1434    1539 CO                 1541
    ##  8  2011     1         31         1     900    1006 CO                 1583
    ##  9  2011     1         30         7    1304    1408 CO                  241
    ## 10  2011     1         30         7    2004    2128 CO                  423
    ## # ... with 1,379 more rows, and 15 more variables: TailNum <chr>,
    ## #   ActualElapsedTime <int>, AirTime <int>, ArrDelay <int>,
    ## #   DepDelay <int>, Origin <chr>, Dest <chr>, Distance <int>,
    ## #   TaxiIn <int>, TaxiOut <int>, Cancelled <int>, CancellationCode <chr>,
    ## #   Diverted <int>, Carrier <chr>, Code <chr>

``` r
# All flights that departed before 5am or arrived after 10pm
filter(hflights, DepTime<500 | ArrTime >2200)
```

    ## # A tibble: 27,799 x 23
    ##     Year Month DayofMonth DayOfWeek DepTime ArrTime UniqueCarrier FlightNum
    ##    <int> <int>      <int>     <int>   <int>   <int> <chr>             <int>
    ##  1  2011     1          4         2    2100    2207 AA                  533
    ##  2  2011     1         14         5    2119    2229 AA                  533
    ##  3  2011     1         10         1    1934    2235 AA                 1294
    ##  4  2011     1         26         3    1905    2211 AA                 1294
    ##  5  2011     1         30         7    1856    2209 AA                 1294
    ##  6  2011     1          9         7    1938    2228 AS                  731
    ##  7  2011     1         31         1    1919    2231 CO                  190
    ##  8  2011     1         31         1    2116    2344 CO                  209
    ##  9  2011     1         31         1    1850    2211 CO                  250
    ## 10  2011     1         31         1    2102    2216 CO                  299
    ## # ... with 27,789 more rows, and 15 more variables: TailNum <chr>,
    ## #   ActualElapsedTime <int>, AirTime <int>, ArrDelay <int>,
    ## #   DepDelay <int>, Origin <chr>, Dest <chr>, Distance <int>,
    ## #   TaxiIn <int>, TaxiOut <int>, Cancelled <int>, CancellationCode <chr>,
    ## #   Diverted <int>, Carrier <chr>, Code <chr>

``` r
# All flights that departed late but arrived ahead of schedule
filter(hflights, DepDelay>0 & ArrDelay<0)
```

    ## # A tibble: 27,712 x 23
    ##     Year Month DayofMonth DayOfWeek DepTime ArrTime UniqueCarrier FlightNum
    ##    <int> <int>      <int>     <int>   <int>   <int> <chr>             <int>
    ##  1  2011     1          2         7    1401    1501 AA                  428
    ##  2  2011     1          5         3    1405    1507 AA                  428
    ##  3  2011     1         18         2    1408    1508 AA                  428
    ##  4  2011     1         18         2     721     827 AA                  460
    ##  5  2011     1         12         3    2015    2113 AA                  533
    ##  6  2011     1         13         4    2020    2116 AA                  533
    ##  7  2011     1         26         3    2009    2103 AA                  533
    ##  8  2011     1          1         6    1631    1736 AA                 1121
    ##  9  2011     1         10         1    1639    1740 AA                 1121
    ## 10  2011     1         12         3    1631    1739 AA                 1121
    ## # ... with 27,702 more rows, and 15 more variables: TailNum <chr>,
    ## #   ActualElapsedTime <int>, AirTime <int>, ArrDelay <int>,
    ## #   DepDelay <int>, Origin <chr>, Dest <chr>, Distance <int>,
    ## #   TaxiIn <int>, TaxiOut <int>, Cancelled <int>, CancellationCode <chr>,
    ## #   Diverted <int>, Carrier <chr>, Code <chr>

``` r
# All flights that were cancelled after being delayed
filter(hflights, DepDelay>0 & Cancelled==1)
```

    ## # A tibble: 40 x 23
    ##     Year Month DayofMonth DayOfWeek DepTime ArrTime UniqueCarrier FlightNum
    ##    <int> <int>      <int>     <int>   <int>   <int> <chr>             <int>
    ##  1  2011     1         26         3    1926      NA CO                  310
    ##  2  2011     1         11         2    1100      NA US                  944
    ##  3  2011     1         19         3    1811      NA XE                 2376
    ##  4  2011     1          7         5    2028      NA XE                 3050
    ##  5  2011     2          4         5    1638      NA AA                 1121
    ##  6  2011     2          8         2    1057      NA CO                  408
    ##  7  2011     2          2         3     802      NA XE                 2189
    ##  8  2011     2          9         3     904      NA XE                 2605
    ##  9  2011     2          1         2    1508      NA OO                 5812
    ## 10  2011     3         31         4    1016      NA CO                  586
    ## # ... with 30 more rows, and 15 more variables: TailNum <chr>,
    ## #   ActualElapsedTime <int>, AirTime <int>, ArrDelay <int>,
    ## #   DepDelay <int>, Origin <chr>, Dest <chr>, Distance <int>,
    ## #   TaxiIn <int>, TaxiOut <int>, Cancelled <int>, CancellationCode <chr>,
    ## #   Diverted <int>, Carrier <chr>, Code <chr>

``` r
# Select the flights that had JFK as their destination: c1
c1 <- filter(hflights, Dest=="JFK")

# Combine the Year, Month and DayofMonth variables to create a Date column: c2
c2 <- mutate (c1, Date = paste(Year, Month, DayofMonth, sep="-"))

# Print out a selection of columns of c2
select(c2, Date, DepTime, ArrTime, TailNum)
```

    ## # A tibble: 695 x 4
    ##    Date     DepTime ArrTime TailNum
    ##    <chr>      <int>   <int> <chr>  
    ##  1 2011-1-1     654    1124 N324JB 
    ##  2 2011-1-1    1639    2110 N324JB 
    ##  3 2011-1-2     703    1113 N324JB 
    ##  4 2011-1-2    1604    2040 N324JB 
    ##  5 2011-1-3     659    1100 N229JB 
    ##  6 2011-1-3    1801    2200 N206JB 
    ##  7 2011-1-4     654    1103 N267JB 
    ##  8 2011-1-4    1608    2034 N267JB 
    ##  9 2011-1-5     700    1103 N708JB 
    ## 10 2011-1-5    1544    1954 N644JB 
    ## # ... with 685 more rows

### 6 arrange()

``` r
# dplyr and the hflights tbl are available

# Definition of dtc
dtc <- filter(hflights, Cancelled == 1, !is.na(DepDelay))

# Arrange dtc by departure delays
arrange(dtc, DepDelay)
```

    ## # A tibble: 68 x 23
    ##     Year Month DayofMonth DayOfWeek DepTime ArrTime UniqueCarrier FlightNum
    ##    <int> <int>      <int>     <int>   <int>   <int> <chr>             <int>
    ##  1  2011     7         23         6     605      NA F9                  225
    ##  2  2011     1         17         1     916      NA XE                 3068
    ##  3  2011    12          1         4     541      NA US                  282
    ##  4  2011    10         12         3    2022      NA MQ                 3724
    ##  5  2011     7         29         5    1424      NA CO                 1079
    ##  6  2011     9         29         4    1639      NA OO                 2062
    ##  7  2011     2          9         3     555      NA MQ                 3265
    ##  8  2011     5          9         1     715      NA OO                 1177
    ##  9  2011     1         20         4    1413      NA UA                  552
    ## 10  2011     1         17         1     831      NA WN                    1
    ## # ... with 58 more rows, and 15 more variables: TailNum <chr>,
    ## #   ActualElapsedTime <int>, AirTime <int>, ArrDelay <int>,
    ## #   DepDelay <int>, Origin <chr>, Dest <chr>, Distance <int>,
    ## #   TaxiIn <int>, TaxiOut <int>, Cancelled <int>, CancellationCode <chr>,
    ## #   Diverted <int>, Carrier <chr>, Code <chr>
…
