DataCamp - EDA Case Study
…
# Importing data
votes <- as_tibble(read.csv(
    file="https://github.com/alexmerk/xcourse/raw/master/datacamp_eda/votes.csv"))
descriptions <- as_tibble(read.csv(
    file="https://github.com/alexmerk/xcourse/raw/master/datacamp_eda/descriptions.csv"))

1 Data cleaning and summarizing with dplyr

# Filter for votes that are "yes", "abstain", or "no"
# Add another %>% step to add a year column
votes %>%
  filter(vote <= 3) %>%
  mutate(year=session+1945)

## # A tibble: 353,547 x 6
##        X  rcid session  vote ccode  year
##    <int> <int>   <int> <int> <int> <dbl>
##  1     1    46       2     1     2  1947
##  2     2    46       2     1    20  1947
##  3     4    46       2     1    40  1947
##  4     5    46       2     1    41  1947
##  5     6    46       2     1    42  1947
##  6    16    46       2     1    70  1947
##  7    18    46       2     1    90  1947
##  8    19    46       2     1    91  1947
##  9    20    46       2     1    92  1947
## 10    21    46       2     1    93  1947
## # ... with 353,537 more rows
…
# Summarize by country: by_country
by_country <- votes_processed %>%
  group_by(country) %>%
  summarize(total = n(),
            percent_yes = mean(vote == 1))

# Filter out countries with fewer than 100 votes
by_country %>%
  arrange(percent_yes) %>%
  filter(total>=100)

## # A tibble: 196 x 3
##    country                          total percent_yes
##    <chr>                            <int>       <dbl>
##  1 United States                     2568       0.269
##  2 Palau                              369       0.339
##  3 Israel                            2380       0.341
##  4 United Kingdom                    2558       0.417
##  5 France                            2527       0.427
##  6 Micronesia (Federated States of)   724       0.442
##  7 Marshall Islands                   757       0.491
##  8 Belgium                           2568       0.492
##  9 Canada                            2576       0.508
## 10 Luxembourg                        2541       0.512
## # ... with 186 more rows
…
# Start with by_year_country dataset
by_year_country <- votes_processed %>%
  group_by(year, country) %>%
  summarize(total = n(),
            percent_yes = mean(vote == 1))

# Print by_year_country
by_year_country

## # A tibble: 4,737 x 4
## # Groups:   year [?]
##     year country     total percent_yes
##    <dbl> <chr>       <int>       <dbl>
##  1  1947 Afghanistan    34       0.382
##  2  1947 Argentina      38       0.579
##  3  1947 Australia      38       0.553
##  4  1947 Belarus        38       0.5  
##  5  1947 Belgium        38       0.605
##  6  1947 Bolivia        37       0.595
##  7  1947 Brazil         38       0.658
##  8  1947 Canada         38       0.605
##  9  1947 Chile          38       0.658
## 10  1947 Colombia       35       0.543
## # ... with 4,727 more rows
…
3 Tidy modeling with broom

# Percentage of yes votes from the US by year: US_by_year
US_by_year <- by_year_country %>%
  filter(country == "United States")

# Print the US_by_year data
US_by_year

## # A tibble: 34 x 4
## # Groups:   year [34]
##     year country       total percent_yes
##    <dbl> <chr>         <int>       <dbl>
##  1  1947 United States    38       0.711
##  2  1949 United States    64       0.281
##  3  1951 United States    25       0.4  
##  4  1953 United States    26       0.5  
##  5  1955 United States    37       0.622
##  6  1957 United States    34       0.647
##  7  1959 United States    54       0.426
##  8  1961 United States    75       0.507
##  9  1963 United States    32       0.5  
## 10  1965 United States    41       0.366
## # ... with 24 more rows
…
Nesting the data

# Load the tidyr package
#library(tidyr)

# Nest all columns besides country
by_year_country %>% nest(-c(country))

## # A tibble: 34 x 2
##     year data              
##    <dbl> <list>            
##  1  1947 <tibble [57 x 2]> 
##  2  1949 <tibble [59 x 2]> 
##  3  1951 <tibble [60 x 2]> 
##  4  1953 <tibble [60 x 2]> 
##  5  1955 <tibble [65 x 2]> 
##  6  1957 <tibble [82 x 2]> 
##  7  1959 <tibble [82 x 2]> 
##  8  1961 <tibble [104 x 2]>
##  9  1963 <tibble [113 x 2]>
## 10  1965 <tibble [117 x 2]>
## # ... with 24 more rows
# All countries are nested besides country
nested <- by_year_country %>%
  nest(-country)

# Print the nested data for Brazil
nested$data[nested$country=="Brazil"]

## Warning: Unknown or uninitialised column: 'country'.

## list()

# Unnest the data column to return it to its original form
nested %>% unnest(data)

## # A tibble: 4,737 x 3
##     year total percent_yes
##    <dbl> <int>       <dbl>
##  1  1947    34       0.382
##  2  1947    38       0.579
##  3  1947    38       0.553
##  4  1947    38       0.5  
##  5  1947    38       0.605
##  6  1947    37       0.595
##  7  1947    38       0.658
##  8  1947    38       0.605
##  9  1947    38       0.658
## 10  1947    35       0.543
## # ... with 4,727 more rows

# IMPORTANT: Ungroup the data set before nesting it.
by_year_country <- by_year_country %>% ungroup()

# Perform a linear regression on each item in the data column
by_year_country %>%
  nest(-country) %>% mutate(model=map(data, ~ lm(percent_yes ~ year, .)))

## # A tibble: 199 x 3
##    country     data              model   
##    <chr>       <list>            <list>  
##  1 Afghanistan <tibble [34 x 3]> <S3: lm>
##  2 Argentina   <tibble [34 x 3]> <S3: lm>
##  3 Australia   <tibble [34 x 3]> <S3: lm>
##  4 Belarus     <tibble [34 x 3]> <S3: lm>
##  5 Belgium     <tibble [34 x 3]> <S3: lm>
##  6 Bolivia     <tibble [34 x 3]> <S3: lm>
##  7 Brazil      <tibble [34 x 3]> <S3: lm>
##  8 Canada      <tibble [34 x 3]> <S3: lm>
##  9 Chile       <tibble [34 x 3]> <S3: lm>
## 10 Colombia    <tibble [34 x 3]> <S3: lm>
## # ... with 189 more rows

# Load the broom package
#library(broom)

# Add another mutate that applies tidy() to each model
by_year_country %>%
  nest(-country) %>%
  mutate(model = map(data, ~ lm(percent_yes ~ year, data = .))) %>%
  mutate(tidied = map(model, ~tidy(.)))

## # A tibble: 199 x 4
##    country     data              model    tidied          
##    <chr>       <list>            <list>   <list>          
##  1 Afghanistan <tibble [34 x 3]> <S3: lm> <tibble [2 x 5]>
##  2 Argentina   <tibble [34 x 3]> <S3: lm> <tibble [2 x 5]>
##  3 Australia   <tibble [34 x 3]> <S3: lm> <tibble [2 x 5]>
##  4 Belarus     <tibble [34 x 3]> <S3: lm> <tibble [2 x 5]>
##  5 Belgium     <tibble [34 x 3]> <S3: lm> <tibble [2 x 5]>
##  6 Bolivia     <tibble [34 x 3]> <S3: lm> <tibble [2 x 5]>
##  7 Brazil      <tibble [34 x 3]> <S3: lm> <tibble [2 x 5]>
##  8 Canada      <tibble [34 x 3]> <S3: lm> <tibble [2 x 5]>
##  9 Chile       <tibble [34 x 3]> <S3: lm> <tibble [2 x 5]>
## 10 Colombia    <tibble [34 x 3]> <S3: lm> <tibble [2 x 5]>
## # ... with 189 more rows

# Add one more step that unnests the tidied column
country_coefficients <- by_year_country %>%
  nest(-country) %>%
  mutate(model = map(data, ~ lm(percent_yes ~ year, data = .)),
         tidied = map(model, ~tidy(.))) %>%
         unnest(tidied)

# Print the resulting country_coefficients variable
country_coefficients

## # A tibble: 397 x 6
##    country     term         estimate std.error statistic       p.value
##    <chr>       <chr>           <dbl>     <dbl>     <dbl>         <dbl>
##  1 Afghanistan (Intercept) -11.1      1.47         -7.52 0.0000000144 
##  2 Afghanistan year          0.00601  0.000743      8.09 0.00000000306
##  3 Argentina   (Intercept)  -9.46     2.10         -4.50 0.0000832    
##  4 Argentina   year          0.00515  0.00106       4.85 0.0000305    
##  5 Australia   (Intercept)  -4.55     2.15         -2.12 0.0422       
##  6 Australia   year          0.00257  0.00108       2.37 0.0242       
##  7 Belarus     (Intercept)  -7.00     1.50         -4.66 0.0000533    
##  8 Belarus     year          0.00391  0.000759      5.15 0.0000128    
##  9 Belgium     (Intercept)  -5.85     1.52         -3.86 0.000522     
## 10 Belgium     year          0.00320  0.000765      4.19 0.000207     
## # ... with 387 more rows

### Working with many tidy models ###
# Print the country_coefficients dataset
country_coefficients

## # A tibble: 397 x 6
##    country     term         estimate std.error statistic       p.value
##    <chr>       <chr>           <dbl>     <dbl>     <dbl>         <dbl>
##  1 Afghanistan (Intercept) -11.1      1.47         -7.52 0.0000000144 
##  2 Afghanistan year          0.00601  0.000743      8.09 0.00000000306
##  3 Argentina   (Intercept)  -9.46     2.10         -4.50 0.0000832    
##  4 Argentina   year          0.00515  0.00106       4.85 0.0000305    
##  5 Australia   (Intercept)  -4.55     2.15         -2.12 0.0422       
##  6 Australia   year          0.00257  0.00108       2.37 0.0242       
##  7 Belarus     (Intercept)  -7.00     1.50         -4.66 0.0000533    
##  8 Belarus     year          0.00391  0.000759      5.15 0.0000128    
##  9 Belgium     (Intercept)  -5.85     1.52         -3.86 0.000522     
## 10 Belgium     year          0.00320  0.000765      4.19 0.000207     
## # ... with 387 more rows

# Filter for only the slope terms
filter(country_coefficients, term=="year")

## # A tibble: 198 x 6
##    country     term  estimate std.error statistic       p.value
##    <chr>       <chr>    <dbl>     <dbl>     <dbl>         <dbl>
##  1 Afghanistan year   0.00601  0.000743      8.09 0.00000000306
##  2 Argentina   year   0.00515  0.00106       4.85 0.0000305    
##  3 Australia   year   0.00257  0.00108       2.37 0.0242       
##  4 Belarus     year   0.00391  0.000759      5.15 0.0000128    
##  5 Belgium     year   0.00320  0.000765      4.19 0.000207     
##  6 Bolivia     year   0.00580  0.000966      6.01 0.00000106   
##  7 Brazil      year   0.00611  0.000817      7.48 0.0000000164 
##  8 Canada      year   0.00152  0.000955      1.59 0.122        
##  9 Chile       year   0.00678  0.000822      8.24 0.00000000205
## 10 Colombia    year   0.00616  0.000965      6.38 0.000000358  
## # ... with 188 more rows

# Filter for only the slope terms
slope_terms <- country_coefficients %>%
  filter(term == "year")

# Add p.adjusted column, then filter
slope_terms %>% mutate (p.adjusted=p.adjust(p.value)) %>%
filter(p.adjusted <0.5)

## # A tibble: 91 x 7
##    country     term  estimate std.error statistic       p.value  p.adjusted
##    <chr>       <chr>    <dbl>     <dbl>     <dbl>         <dbl>       <dbl>
##  1 Afghanistan year   0.00601  0.000743      8.09 0.00000000306 0.000000592
##  2 Argentina   year   0.00515  0.00106       4.85 0.0000305     0.00475    
##  3 Belarus     year   0.00391  0.000759      5.15 0.0000128     0.00206    
##  4 Belgium     year   0.00320  0.000765      4.19 0.000207      0.0296     
##  5 Bolivia     year   0.00580  0.000966      6.01 0.00000106    0.000186   
##  6 Brazil      year   0.00611  0.000817      7.48 0.0000000164  0.00000310 
##  7 Chile       year   0.00678  0.000822      8.24 0.00000000205 0.000000397
##  8 Colombia    year   0.00616  0.000965      6.38 0.000000358   0.0000652  
##  9 Costa Rica  year   0.00654  0.000812      8.05 0.00000000339 0.000000651
## 10 Cuba        year   0.00461  0.000721      6.40 0.000000343   0.0000628  
## # ... with 81 more rows

# Filter by adjusted p-values
filtered_countries <- country_coefficients %>%
  filter(term == "year") %>%
  mutate(p.adjusted = p.adjust(p.value)) %>%
  filter(p.adjusted < .05)

# Sort for the countries increasing most quickly
arrange(filtered_countries, estimate)

## # A tibble: 63 x 7
##    country         term  estimate std.error statistic   p.value p.adjusted
##    <chr>           <chr>    <dbl>     <dbl>     <dbl>     <dbl>      <dbl>
##  1 South Korea     year  -0.00921  0.00155      -5.96   1.39e-4  0.0206   
##  2 Israel          year  -0.00685  0.00117      -5.85   1.89e-6  0.000327 
##  3 United States   year  -0.00624  0.000928     -6.72   1.37e-7  0.0000253
##  4 Belgium         year   0.00320  0.000765      4.19   2.07e-4  0.0296   
##  5 Guinea          year   0.00362  0.000833      4.35   1.87e-4  0.0271   
##  6 Morocco         year   0.00380  0.000860      4.42   1.46e-4  0.0215   
##  7 Belarus         year   0.00391  0.000759      5.15   1.28e-5  0.00206  
##  8 Iran            year   0.00391  0.000856      4.57   6.91e-5  0.0106   
##  9 Congo - Brazza~ year   0.00397  0.000922      4.30   2.27e-4  0.0322   
## 10 Sudan           year   0.00399  0.000961      4.15   2.98e-4  0.0414   
## # ... with 53 more rows

# Sort for the countries decreasing most quickly
arrange(filtered_countries, desc(estimate))

## # A tibble: 63 x 7
##    country          term  estimate std.error statistic  p.value p.adjusted
##    <chr>            <chr>    <dbl>     <dbl>     <dbl>    <dbl>      <dbl>
##  1 <NA>             year   0.0120   0.00165       7.32 6.15e- 7    1.11e-4
##  2 South Africa     year   0.0119   0.00140       8.47 1.60e- 8    3.03e-6
##  3 Kazakhstan       year   0.0110   0.00195       5.62 3.24e- 4    4.44e-2
##  4 Yemen Arab Repu~ year   0.0109   0.00159       6.84 1.20e- 6    2.08e-4
##  5 Kyrgyzstan       year   0.00973  0.000988      9.84 2.38e- 5    3.74e-3
##  6 Malawi           year   0.00908  0.00181       5.02 4.48e- 5    6.95e-3
##  7 Dominican Repub~ year   0.00806  0.000914      8.81 5.96e-10    1.17e-7
##  8 Portugal         year   0.00802  0.00171       4.68 7.13e- 5    1.08e-2
##  9 Honduras         year   0.00772  0.000921      8.38 1.43e- 9    2.79e-7
## 10 Peru             year   0.00730  0.000976      7.48 1.65e- 8    3.10e-6
## # ... with 53 more rows

4 Joining data sets

# Load dplyr package
#library(dplyr)

# Print the votes_processed dataset
votes_processed

## # A tibble: 353,547 x 7
##        X  rcid session  vote ccode  year country           
##    <int> <int>   <int> <int> <int> <dbl> <chr>             
##  1     1    46       2     1     2  1947 United States     
##  2     2    46       2     1    20  1947 Canada            
##  3     4    46       2     1    40  1947 Cuba              
##  4     5    46       2     1    41  1947 Haiti             
##  5     6    46       2     1    42  1947 Dominican Republic
##  6    16    46       2     1    70  1947 Mexico            
##  7    18    46       2     1    90  1947 Guatemala         
##  8    19    46       2     1    91  1947 Honduras          
##  9    20    46       2     1    92  1947 El Salvador       
## 10    21    46       2     1    93  1947 Nicaragua         
## # ... with 353,537 more rows

# Print the descriptions dataset
descriptions

## # A tibble: 2,589 x 11
##        X  rcid session date     unres     me    nu    di    hr    co    ec
##    <int> <int>   <int> <fct>    <fct>  <int> <int> <int> <int> <int> <int>
##  1     1    46       2 1947-09~ R/2/2~     0     0     0     0     0     0
##  2     2    47       2 1947-10~ R/2/3~     0     0     0     1     0     0
##  3     3    48       2 1947-10~ R/2/4~     0     0     0     0     0     0
##  4     4    49       2 1947-10~ R/2/4~     0     0     0     0     0     0
##  5     5    50       2 1947-10~ R/2/4~     0     0     0     0     0     0
##  6     6    51       2 1947-10~ R/2/5~     0     0     0     0     1     0
##  7     7    52       2 1947-11~ R/2/6~     0     0     0     0     1     0
##  8     8    53       2 1947-11~ R/2/6~     0     0     0     0     1     0
##  9     9    54       2 1947-11~ R/2/6~     0     0     0     0     1     0
## 10    10    55       2 1947-11~ R/2/6~     0     0     0     0     1     0
## # ... with 2,579 more rows

# Join them together based on the "rcid" and "session" columns
votes_joined <- inner_join(votes_processed, descriptions, 
by=c("rcid", "session"))

# Filter for votes related to colonialism
votes_joined %>% filter(co==1)

## # A tibble: 60,962 x 16
##      X.x  rcid session  vote ccode  year country   X.y date  unres    me
##    <int> <int>   <int> <int> <int> <dbl> <chr>   <int> <fct> <fct> <int>
##  1   986    51       2     3     2  1947 United~     6 1947~ R/2/~     0
##  2   987    51       2     3    20  1947 Canada      6 1947~ R/2/~     0
##  3   989    51       2     2    40  1947 Cuba        6 1947~ R/2/~     0
##  4   990    51       2     1    41  1947 Haiti       6 1947~ R/2/~     0
##  5   991    51       2     3    42  1947 Domini~     6 1947~ R/2/~     0
##  6  1001    51       2     2    70  1947 Mexico      6 1947~ R/2/~     0
##  7  1003    51       2     2    90  1947 Guatem~     6 1947~ R/2/~     0
##  8  1005    51       2     2    92  1947 El Sal~     6 1947~ R/2/~     0
##  9  1006    51       2     3    93  1947 Nicara~     6 1947~ R/2/~     0
## 10  1008    51       2     2    95  1947 Panama      6 1947~ R/2/~     0
## # ... with 60,952 more rows, and 5 more variables: nu <int>, di <int>,
## #   hr <int>, co <int>, ec <int>
…
# Load the tidyr package
#library(tidyr)

# Gather the six me/nu/di/hr/co/ec columns
votes_joined %>%
  gather(topic, has_topic, me:ec)

## # A tibble: 2,121,282 x 12
##      X.x  rcid session  vote ccode  year country   X.y date  unres topic
##    <int> <int>   <int> <int> <int> <dbl> <chr>   <int> <fct> <fct> <chr>
##  1     1    46       2     1     2  1947 United~     1 1947~ R/2/~ me   
##  2     2    46       2     1    20  1947 Canada      1 1947~ R/2/~ me   
##  3     4    46       2     1    40  1947 Cuba        1 1947~ R/2/~ me   
##  4     5    46       2     1    41  1947 Haiti       1 1947~ R/2/~ me   
##  5     6    46       2     1    42  1947 Domini~     1 1947~ R/2/~ me   
##  6    16    46       2     1    70  1947 Mexico      1 1947~ R/2/~ me   
##  7    18    46       2     1    90  1947 Guatem~     1 1947~ R/2/~ me   
##  8    19    46       2     1    91  1947 Hondur~     1 1947~ R/2/~ me   
##  9    20    46       2     1    92  1947 El Sal~     1 1947~ R/2/~ me   
## 10    21    46       2     1    93  1947 Nicara~     1 1947~ R/2/~ me   
## # ... with 2,121,272 more rows, and 1 more variable: has_topic <int>
…
# Replace the two-letter codes in topic: votes_tidied
votes_tidied <- votes_gathered %>%
  mutate(topic = recode(topic,
                        me = "Palestinian conflict",
                        nu = "Nuclear weapons and nuclear material",
                        di = "Arms control and disarmament",
                        hr = "Human rights",
                        co = "Colonialism",
                        ec = "Economic development"))

# Print votes_tidied
votes_tidied

## # A tibble: 350,032 x 12
##      X.x  rcid session  vote ccode  year country   X.y date  unres topic
##    <int> <int>   <int> <int> <int> <dbl> <chr>   <int> <fct> <fct> <chr>
##  1  6108    77       2     1     2  1947 United~    32 1947~ R/2/~ Pale~
##  2  6109    77       2     1    20  1947 Canada     32 1947~ R/2/~ Pale~
##  3  6111    77       2     3    40  1947 Cuba       32 1947~ R/2/~ Pale~
##  4  6112    77       2     1    41  1947 Haiti      32 1947~ R/2/~ Pale~
##  5  6113    77       2     1    42  1947 Domini~    32 1947~ R/2/~ Pale~
##  6  6123    77       2     2    70  1947 Mexico     32 1947~ R/2/~ Pale~
##  7  6125    77       2     1    90  1947 Guatem~    32 1947~ R/2/~ Pale~
##  8  6126    77       2     2    91  1947 Hondur~    32 1947~ R/2/~ Pale~
##  9  6127    77       2     2    92  1947 El Sal~    32 1947~ R/2/~ Pale~
## 10  6128    77       2     1    93  1947 Nicara~    32 1947~ R/2/~ Pale~
## # ... with 350,022 more rows, and 1 more variable: has_topic <int>
…
